#VRML V2.0 utf8#
# Converted from LandSerf TIN:
# Scaled so centre is at 0,0,0 with largest side 10 units long
Background {
  skyColor    [0.0 0.2 0.7, 0.0 0.5 1.0, 1.0 1.0 1.0 ]
  skyAngle    [ 1.309, 1.571 ]
  groundColor [0.0 0.0 0.6 , 0.0 0.0 0.6 , 0.0 0.0 0.6 ]
  groundAngle [ 1.309, 1.571 ] } # end of background
Transform {
  translation -5, -6, -5
  scale -0.01,-0.01,-0.01
  rotation 0 0 1 3.145
  children
  [
    Shape {
      appearance Appearance { texture ImageTexture {url "2-187_vrmlDrape.jpg" repeatS TRUE repeatT TRUE} }
      geometry IndexedFaceSet {
        solid TRUE
        coord Coordinate {
          point [

790.0 803.0 550.0
710.0 792.0 720.0
650.0 833.0 590.0
130.0 839.0 910.0
140.0 816.0 970.0
90.0 813.0 1000.0
550.0 806.0 840.0
480.0 815.0 740.0
540.0 826.0 730.0
540.0 826.0 730.0
520.0 845.0 650.0
580.0 829.0 630.0
140.0 838.0 680.0
80.0 842.0 890.0
10.0 816.0 750.0
800.0 779.0 710.0
790.0 803.0 550.0
860.0 793.0 540.0
820.0 768.0 940.0
740.0 792.0 780.0
780.0 780.0 770.0
80.0 842.0 890.0
140.0 838.0 680.0
230.0 842.0 740.0
40.0 833.0 890.0
80.0 842.0 890.0
90.0 813.0 1000.0
170.0 831.0 540.0
10.0 843.0 370.0
100.0 848.0 330.0
410.0 905.0 420.0
240.0 901.0 270.0
320.0 903.0 230.0
80.0 842.0 890.0
40.0 833.0 890.0
10.0 816.0 750.0
90.0 813.0 1000.0
80.0 842.0 890.0
130.0 839.0 910.0
130.0 839.0 910.0
380.0 779.0 920.0
140.0 816.0 970.0
510.0 790.0 1000.0
400.0 775.0 980.0
380.0 779.0 920.0
390.0 775.0 990.0
140.0 816.0 970.0
380.0 779.0 920.0
380.0 779.0 920.0
400.0 775.0 980.0
390.0 775.0 990.0
780.0 795.0 370.0
650.0 806.0 250.0
850.0 788.0 100.0
820.0 768.0 940.0
670.0 782.0 890.0
740.0 792.0 780.0
380.0 779.0 920.0
550.0 806.0 840.0
540.0 793.0 980.0
0.0 825.0 910.0
40.0 833.0 890.0
90.0 813.0 1000.0
780.0 795.0 370.0
650.0 817.0 460.0
600.0 816.0 330.0
410.0 905.0 420.0
320.0 903.0 230.0
420.0 853.0 260.0
650.0 817.0 460.0
550.0 848.0 420.0
600.0 816.0 330.0
460.0 887.0 510.0
510.0 872.0 560.0
460.0 872.0 600.0
410.0 905.0 420.0
520.0 841.0 350.0
490.0 881.0 470.0
260.0 903.0 0.0
320.0 890.0 40.0
260.0 904.0 30.0
260.0 903.0 0.0
170.0 901.0 10.0
160.0 898.0 0.0
380.0 779.0 920.0
540.0 793.0 980.0
510.0 790.0 1000.0
550.0 806.0 840.0
380.0 779.0 920.0
360.0 794.0 840.0
140.0 816.0 970.0
390.0 775.0 990.0
400.0 774.0 1000.0
0.0 842.0 360.0
0.0 819.0 280.0
100.0 848.0 330.0
0.0 819.0 610.0
10.0 843.0 370.0
170.0 831.0 540.0
40.0 833.0 890.0
0.0 825.0 910.0
10.0 816.0 750.0
100.0 848.0 330.0
240.0 901.0 270.0
260.0 879.0 440.0
100.0 848.0 330.0
10.0 843.0 370.0
0.0 842.0 360.0
0.0 819.0 280.0
20.0 839.0 60.0
110.0 878.0 110.0
790.0 803.0 550.0
800.0 779.0 710.0
710.0 792.0 720.0
680.0 830.0 540.0
650.0 817.0 460.0
720.0 819.0 500.0
90.0 813.0 1000.0
-0.0 800.0 1000.0
0.0 825.0 910.0
400.0 774.0 1000.0
90.0 813.0 1000.0
140.0 816.0 970.0
400.0 774.0 1000.0
390.0 775.0 990.0
400.0 775.0 980.0
510.0 790.0 1000.0
400.0 774.0 1000.0
400.0 775.0 980.0
830.0 768.0 1000.0
540.0 793.0 980.0
670.0 782.0 890.0
490.0 881.0 470.0
570.0 844.0 500.0
510.0 872.0 560.0
490.0 881.0 470.0
520.0 841.0 350.0
550.0 848.0 420.0
0.0 819.0 610.0
0.0 842.0 360.0
10.0 843.0 370.0
540.0 826.0 730.0
710.0 792.0 720.0
650.0 792.0 810.0
420.0 853.0 260.0
420.0 855.0 160.0
500.0 818.0 190.0
420.0 853.0 260.0
520.0 841.0 350.0
410.0 905.0 420.0
910.0 773.0 700.0
890.0 772.0 760.0
800.0 779.0 710.0
570.0 844.0 500.0
680.0 830.0 540.0
650.0 833.0 590.0
510.0 872.0 560.0
550.0 852.0 560.0
510.0 868.0 580.0
460.0 872.0 600.0
410.0 878.0 580.0
460.0 887.0 510.0
500.0 804.0 0.0
530.0 804.0 120.0
430.0 833.0 60.0
430.0 833.0 60.0
350.0 879.0 0.0
500.0 804.0 0.0
430.0 833.0 60.0
420.0 855.0 160.0
380.0 857.0 80.0
370.0 843.0 690.0
460.0 872.0 600.0
500.0 828.0 700.0
370.0 843.0 690.0
280.0 842.0 650.0
410.0 878.0 580.0
10.0 816.0 750.0
30.0 816.0 710.0
140.0 838.0 680.0
0.0 819.0 610.0
170.0 831.0 540.0
140.0 838.0 680.0
140.0 838.0 680.0
20.0 829.0 670.0
0.0 819.0 610.0
790.0 803.0 550.0
720.0 819.0 500.0
800.0 793.0 430.0
850.0 788.0 390.0
780.0 795.0 370.0
850.0 788.0 100.0
320.0 808.0 800.0
230.0 842.0 740.0
290.0 826.0 750.0
140.0 838.0 680.0
30.0 816.0 710.0
20.0 829.0 670.0
0.0 825.0 910.0
0.0 819.0 610.0
10.0 816.0 750.0
0.0 819.0 610.0
20.0 829.0 670.0
10.0 816.0 750.0
10.0 816.0 750.0
20.0 829.0 670.0
30.0 816.0 710.0
850.0 788.0 390.0
1000.0 790.0 -0.0
1000.0 767.0 610.0
800.0 779.0 710.0
860.0 793.0 540.0
910.0 773.0 700.0
860.0 793.0 540.0
790.0 803.0 550.0
800.0 793.0 430.0
890.0 772.0 760.0
910.0 773.0 700.0
1000.0 767.0 610.0
1000.0 767.0 610.0
860.0 793.0 540.0
850.0 788.0 390.0
1000.0 767.0 610.0
1000.0 768.0 1000.0
890.0 772.0 760.0
1000.0 767.0 610.0
910.0 773.0 700.0
860.0 793.0 540.0
420.0 855.0 160.0
430.0 833.0 60.0
530.0 804.0 120.0
420.0 853.0 260.0
320.0 903.0 230.0
420.0 855.0 160.0
380.0 857.0 80.0
350.0 879.0 0.0
430.0 833.0 60.0
420.0 855.0 160.0
320.0 903.0 230.0
350.0 889.0 150.0
260.0 903.0 0.0
350.0 879.0 0.0
320.0 890.0 40.0
350.0 879.0 0.0
380.0 857.0 80.0
320.0 890.0 40.0
260.0 904.0 30.0
170.0 901.0 10.0
260.0 903.0 0.0
320.0 890.0 40.0
340.0 879.0 100.0
290.0 902.0 110.0
680.0 830.0 540.0
570.0 844.0 500.0
650.0 817.0 460.0
890.0 772.0 760.0
1000.0 768.0 1000.0
820.0 768.0 940.0
350.0 889.0 150.0
380.0 857.0 80.0
420.0 855.0 160.0
320.0 903.0 230.0
240.0 901.0 270.0
300.0 907.0 200.0
300.0 907.0 200.0
350.0 889.0 150.0
320.0 903.0 230.0
220.0 906.0 130.0
240.0 901.0 270.0
100.0 849.0 260.0
720.0 819.0 500.0
790.0 803.0 550.0
680.0 830.0 540.0
650.0 817.0 460.0
780.0 795.0 370.0
720.0 819.0 500.0
550.0 852.0 560.0
510.0 872.0 560.0
570.0 844.0 500.0
370.0 843.0 690.0
340.0 828.0 760.0
290.0 826.0 750.0
340.0 828.0 760.0
370.0 843.0 690.0
480.0 815.0 740.0
130.0 839.0 910.0
320.0 808.0 800.0
360.0 794.0 840.0
230.0 842.0 740.0
140.0 838.0 680.0
250.0 846.0 620.0
320.0 808.0 800.0
130.0 839.0 910.0
230.0 842.0 740.0
230.0 842.0 740.0
130.0 839.0 910.0
80.0 842.0 890.0
340.0 828.0 760.0
480.0 815.0 740.0
360.0 794.0 840.0
360.0 794.0 840.0
480.0 815.0 740.0
550.0 806.0 840.0
360.0 794.0 840.0
380.0 779.0 920.0
130.0 839.0 910.0
320.0 808.0 800.0
340.0 828.0 760.0
360.0 794.0 840.0
240.0 901.0 270.0
410.0 905.0 420.0
260.0 879.0 440.0
260.0 855.0 510.0
170.0 831.0 540.0
220.0 852.0 480.0
260.0 855.0 510.0
260.0 879.0 440.0
410.0 905.0 420.0
410.0 878.0 580.0
460.0 872.0 600.0
370.0 843.0 690.0
410.0 878.0 580.0
280.0 842.0 650.0
250.0 846.0 620.0
410.0 878.0 580.0
260.0 855.0 510.0
410.0 905.0 420.0
850.0 788.0 100.0
1000.0 790.0 -0.0
850.0 788.0 390.0
650.0 806.0 250.0
530.0 804.0 120.0
820.0 787.0 0.0
530.0 804.0 120.0
500.0 804.0 0.0
820.0 787.0 0.0
290.0 826.0 750.0
340.0 828.0 760.0
320.0 808.0 800.0
230.0 842.0 740.0
280.0 842.0 650.0
290.0 826.0 750.0
290.0 826.0 750.0
280.0 842.0 650.0
370.0 843.0 690.0
1000.0 790.0 -0.0
850.0 788.0 100.0
820.0 787.0 0.0
820.0 787.0 0.0
850.0 788.0 100.0
650.0 806.0 250.0
320.0 890.0 40.0
380.0 857.0 80.0
340.0 879.0 100.0
380.0 857.0 80.0
350.0 889.0 150.0
340.0 879.0 100.0
220.0 906.0 130.0
300.0 907.0 200.0
240.0 901.0 270.0
290.0 902.0 110.0
320.0 902.0 150.0
300.0 907.0 200.0
340.0 879.0 100.0
350.0 889.0 150.0
320.0 902.0 150.0
350.0 889.0 150.0
300.0 907.0 200.0
320.0 902.0 150.0
830.0 768.0 1000.0
510.0 790.0 1000.0
540.0 793.0 980.0
820.0 768.0 940.0
1000.0 768.0 1000.0
830.0 768.0 1000.0
510.0 868.0 580.0
550.0 852.0 560.0
580.0 829.0 630.0
510.0 868.0 580.0
460.0 872.0 600.0
510.0 872.0 560.0
650.0 817.0 460.0
570.0 844.0 500.0
550.0 848.0 420.0
550.0 848.0 420.0
570.0 844.0 500.0
490.0 881.0 470.0
600.0 816.0 330.0
650.0 806.0 250.0
780.0 795.0 370.0
550.0 848.0 420.0
520.0 841.0 350.0
600.0 816.0 330.0
600.0 816.0 330.0
520.0 841.0 350.0
570.0 820.0 240.0
570.0 820.0 240.0
520.0 841.0 350.0
420.0 853.0 260.0
530.0 804.0 120.0
650.0 806.0 250.0
570.0 820.0 240.0
650.0 806.0 250.0
600.0 816.0 330.0
570.0 820.0 240.0
530.0 804.0 120.0
570.0 820.0 240.0
500.0 818.0 190.0
500.0 818.0 190.0
570.0 820.0 240.0
420.0 853.0 260.0
420.0 855.0 160.0
530.0 804.0 120.0
500.0 818.0 190.0
160.0 898.0 0.0
170.0 901.0 10.0
110.0 878.0 110.0
170.0 831.0 540.0
260.0 855.0 510.0
250.0 846.0 620.0
250.0 846.0 620.0
260.0 855.0 510.0
410.0 878.0 580.0
250.0 846.0 620.0
280.0 842.0 650.0
230.0 842.0 740.0
140.0 838.0 680.0
170.0 831.0 540.0
250.0 846.0 620.0
460.0 887.0 510.0
490.0 881.0 470.0
510.0 872.0 560.0
410.0 878.0 580.0
410.0 905.0 420.0
460.0 887.0 510.0
410.0 905.0 420.0
490.0 881.0 470.0
460.0 887.0 510.0
780.0 795.0 370.0
850.0 788.0 390.0
800.0 793.0 430.0
800.0 793.0 430.0
850.0 788.0 390.0
860.0 793.0 540.0
720.0 819.0 500.0
780.0 795.0 370.0
800.0 793.0 430.0
670.0 782.0 890.0
820.0 768.0 940.0
830.0 768.0 1000.0
540.0 793.0 980.0
550.0 806.0 840.0
670.0 782.0 890.0
710.0 792.0 720.0
740.0 792.0 780.0
650.0 792.0 810.0
710.0 792.0 720.0
800.0 779.0 710.0
780.0 780.0 770.0
170.0 831.0 540.0
100.0 848.0 330.0
220.0 852.0 480.0
100.0 848.0 330.0
260.0 879.0 440.0
220.0 852.0 480.0
220.0 852.0 480.0
260.0 879.0 440.0
260.0 855.0 510.0
0.0 819.0 280.0
-0.0 841.0 -0.0
20.0 839.0 60.0
-0.0 841.0 -0.0
70.0 873.0 0.0
20.0 839.0 60.0
110.0 878.0 110.0
70.0 873.0 0.0
160.0 898.0 0.0
240.0 901.0 270.0
100.0 848.0 330.0
100.0 849.0 260.0
110.0 878.0 110.0
20.0 839.0 60.0
70.0 873.0 0.0
170.0 901.0 10.0
260.0 904.0 30.0
220.0 906.0 130.0
300.0 907.0 200.0
220.0 906.0 130.0
290.0 902.0 110.0
220.0 906.0 130.0
110.0 878.0 110.0
170.0 901.0 10.0
290.0 902.0 110.0
260.0 904.0 30.0
320.0 890.0 40.0
290.0 902.0 110.0
340.0 879.0 100.0
320.0 902.0 150.0
220.0 906.0 130.0
260.0 904.0 30.0
290.0 902.0 110.0
0.0 819.0 280.0
110.0 878.0 110.0
100.0 849.0 260.0
100.0 849.0 260.0
110.0 878.0 110.0
220.0 906.0 130.0
100.0 848.0 330.0
0.0 819.0 280.0
100.0 849.0 260.0
740.0 792.0 780.0
670.0 782.0 890.0
650.0 792.0 810.0
670.0 782.0 890.0
550.0 806.0 840.0
650.0 792.0 810.0
650.0 792.0 810.0
550.0 806.0 840.0
540.0 826.0 730.0
800.0 779.0 710.0
890.0 772.0 760.0
780.0 780.0 770.0
780.0 780.0 770.0
890.0 772.0 760.0
820.0 768.0 940.0
780.0 780.0 770.0
740.0 792.0 780.0
710.0 792.0 720.0
460.0 872.0 600.0
510.0 868.0 580.0
520.0 845.0 650.0
540.0 826.0 730.0
480.0 815.0 740.0
500.0 828.0 700.0
500.0 828.0 700.0
480.0 815.0 740.0
370.0 843.0 690.0
650.0 833.0 590.0
550.0 852.0 560.0
570.0 844.0 500.0
540.0 826.0 730.0
500.0 828.0 700.0
520.0 845.0 650.0
520.0 845.0 650.0
500.0 828.0 700.0
460.0 872.0 600.0
580.0 829.0 630.0
710.0 792.0 720.0
540.0 826.0 730.0
580.0 829.0 630.0
520.0 845.0 650.0
510.0 868.0 580.0
650.0 833.0 590.0
680.0 830.0 540.0
790.0 803.0 550.0
710.0 792.0 720.0
580.0 829.0 630.0
650.0 833.0 590.0
650.0 833.0 590.0
580.0 829.0 630.0
550.0 852.0 560.0

                ]  # end of point
        } # end of coord

        # Note coordinate indices specifiy vertices in anticlockwise direction.
        coordIndex [
0 1 2 -1
3 4 5 -1
6 7 8 -1
9 10 11 -1
12 13 14 -1
15 16 17 -1
18 19 20 -1
21 22 23 -1
24 25 26 -1
27 28 29 -1
30 31 32 -1
33 34 35 -1
36 37 38 -1
39 40 41 -1
42 43 44 -1
45 46 47 -1
48 49 50 -1
51 52 53 -1
54 55 56 -1
57 58 59 -1
60 61 62 -1
63 64 65 -1
66 67 68 -1
69 70 71 -1
72 73 74 -1
75 76 77 -1
78 79 80 -1
81 82 83 -1
84 85 86 -1
87 88 89 -1
90 91 92 -1
93 94 95 -1
96 97 98 -1
99 100 101 -1
102 103 104 -1
105 106 107 -1
108 109 110 -1
111 112 113 -1
114 115 116 -1
117 118 119 -1
120 121 122 -1
123 124 125 -1
126 127 128 -1
129 130 131 -1
132 133 134 -1
135 136 137 -1
138 139 140 -1
141 142 143 -1
144 145 146 -1
147 148 149 -1
150 151 152 -1
153 154 155 -1
156 157 158 -1
159 160 161 -1
162 163 164 -1
165 166 167 -1
168 169 170 -1
171 172 173 -1
174 175 176 -1
177 178 179 -1
180 181 182 -1
183 184 185 -1
186 187 188 -1
189 190 191 -1
192 193 194 -1
195 196 197 -1
198 199 200 -1
201 202 203 -1
204 205 206 -1
207 208 209 -1
210 211 212 -1
213 214 215 -1
216 217 218 -1
219 220 221 -1
222 223 224 -1
225 226 227 -1
228 229 230 -1
231 232 233 -1
234 235 236 -1
237 238 239 -1
240 241 242 -1
243 244 245 -1
246 247 248 -1
249 250 251 -1
252 253 254 -1
255 256 257 -1
258 259 260 -1
261 262 263 -1
264 265 266 -1
267 268 269 -1
270 271 272 -1
273 274 275 -1
276 277 278 -1
279 280 281 -1
282 283 284 -1
285 286 287 -1
288 289 290 -1
291 292 293 -1
294 295 296 -1
297 298 299 -1
300 301 302 -1
303 304 305 -1
306 307 308 -1
309 310 311 -1
312 313 314 -1
315 316 317 -1
318 319 320 -1
321 322 323 -1
324 325 326 -1
327 328 329 -1
330 331 332 -1
333 334 335 -1
336 337 338 -1
339 340 341 -1
342 343 344 -1
345 346 347 -1
348 349 350 -1
351 352 353 -1
354 355 356 -1
357 358 359 -1
360 361 362 -1
363 364 365 -1
366 367 368 -1
369 370 371 -1
372 373 374 -1
375 376 377 -1
378 379 380 -1
381 382 383 -1
384 385 386 -1
387 388 389 -1
390 391 392 -1
393 394 395 -1
396 397 398 -1
399 400 401 -1
402 403 404 -1
405 406 407 -1
408 409 410 -1
411 412 413 -1
414 415 416 -1
417 418 419 -1
420 421 422 -1
423 424 425 -1
426 427 428 -1
429 430 431 -1
432 433 434 -1
435 436 437 -1
438 439 440 -1
441 442 443 -1
444 445 446 -1
447 448 449 -1
450 451 452 -1
453 454 455 -1
456 457 458 -1
459 460 461 -1
462 463 464 -1
465 466 467 -1
468 469 470 -1
471 472 473 -1
474 475 476 -1
477 478 479 -1
480 481 482 -1
483 484 485 -1
486 487 488 -1
489 490 491 -1
492 493 494 -1
495 496 497 -1
498 499 500 -1
501 502 503 -1
504 505 506 -1
507 508 509 -1
510 511 512 -1
513 514 515 -1
516 517 518 -1
519 520 521 -1
522 523 524 -1
525 526 527 -1
528 529 530 -1
531 532 533 -1
534 535 536 -1
537 538 539 -1
540 541 542 -1
543 544 545 -1
546 547 548 -1
549 550 551 -1
552 553 554 -1
555 556 557 -1
558 559 560 -1

        ] # end of coordIndex
      } # end of geometry
    } # end of shape
  ] # end of children
} # end of transform

